R4DS Book Club
…
The direction argument helps in detemining the direction of filling missing values. The options are - `down` (default) which replaces by previous non-NA value, `up` which replaces with the folllowing non-NA value, etc (`downup`, `updown`).

---

## Case Study 

> The tidyr::who dataset contains tuberculosis (TB) cases broken down by year, country, age, gender, and diagnosis method. The data comes from the 2014 World Health Organization Global Tuberculosis Report, available at http://www.who.int/tb/country/data/download/en/.

```r
who
```

```
## # A tibble: 7,240 x 60
##    country iso2  iso3   year new_sp_m014 new_sp_m1524 new_sp_m2534 new_sp_m3544
##    <chr>   <chr> <chr> <int>       <int>        <int>        <int>        <int>
##  1 Afghan~ AF    AFG    1980          NA           NA           NA           NA
##  2 Afghan~ AF    AFG    1981          NA           NA           NA           NA
##  3 Afghan~ AF    AFG    1982          NA           NA           NA           NA
##  4 Afghan~ AF    AFG    1983          NA           NA           NA           NA
##  5 Afghan~ AF    AFG    1984          NA           NA           NA           NA
##  6 Afghan~ AF    AFG    1985          NA           NA           NA           NA
##  7 Afghan~ AF    AFG    1986          NA           NA           NA           NA
##  8 Afghan~ AF    AFG    1987          NA           NA           NA           NA
##  9 Afghan~ AF    AFG    1988          NA           NA           NA           NA
## 10 Afghan~ AF    AFG    1989          NA           NA           NA           NA
## # ... with 7,230 more rows, and 52 more variables: new_sp_m4554 <int>,
## #   new_sp_m5564 <int>, new_sp_m65 <int>, new_sp_f014 <int>,
## #   new_sp_f1524 <int>, new_sp_f2534 <int>, new_sp_f3544 <int>,
## #   new_sp_f4554 <int>, new_sp_f5564 <int>, new_sp_f65 <int>,
## #   new_sn_m014 <int>, new_sn_m1524 <int>, new_sn_m2534 <int>,
## #   new_sn_m3544 <int>, new_sn_m4554 <int>, new_sn_m5564 <int>,
## #   new_sn_m65 <int>, new_sn_f014 <int>, new_sn_f1524 <int>,
## #   new_sn_f2534 <int>, new_sn_f3544 <int>, new_sn_f4554 <int>,
## #   new_sn_f5564 <int>, new_sn_f65 <int>, new_ep_m014 <int>,
…
